Chapter 5 Linear Regression | Advanced Business Analytics with R: Descriptive, Predictive, and Prescriptive Methods
…
Figure 5.2: In a three-dimensional setting, with two predictors and one response, the least squares regression line becomes a plane. The ‘best-fit’ plane minimizes the sum of squared errors between the actual sales price (individual dots) and the predicted sales price (plane).

In general, we can include as many predicotrs as we want, as long as we have more rows than parmaters! The general multiple linear regression model with p distinct predictors is

\[\begin{equation}
  Y = \beta_0 + \beta_1 X_1 + \beta_2 X_2 + \cdots + \beta_p X_p + \epsilon,
\end{equation}\]

where \(X_i\) for \(i = 1, 2, \dots, p\) are the predictors of interest. Note some of these may represent interactions (e.g., \(X_3 = X_1 \times X_2\)) between or transformations1 (e.g., \(X_4 = \sqrt{X_1}\)) of the original features. Unfortunately, visualizing beyond three dimensions is not practical as our best-fit plane becomes a hyperplane. However, the motivation remains the same where the best-fit hyperplane is identified by minimizing the RSS. The below creates a third model where we use all features in our data set to predict Sale_Price.

When fitting an MLR model in R with may terms, we can make use of the . notation for conveniance. For example, the dot in lm(Sale_Price ~ ., data = trn) is shorthand for regressing Sale_Price onto all other columns trn whereas lm(Sale_Price ~ .^2, data = trn) will regress Sale_Price on all other columns in trn while also including all possible two-way interactions effects. The use of . within lm() is illustrated below for the Ames housing example where we now include all possible main effects.

model3 <- lm(Sale_Price ~ ., data = trn)  # include all possible main effects
broom::tidy(model3)  # print estimated coefficients in a tidy data frame
## # A tibble: 291 x 5
##    term                                estimate std.error statistic p.value
##    <chr>                                  <dbl>     <dbl>     <dbl>   <dbl>
##  1 (Intercept)                          -1.51e7 10738681.   -1.41    0.159 
##  2 MS_SubClassOne_Story_1945_and_Old…    1.92e3     3619.    0.530   0.596 
##  3 MS_SubClassOne_Story_with_Finishe…    1.19e4    11239.    1.06    0.290 
##  4 MS_SubClassOne_and_Half_Story_Unf…    1.99e4    17296.    1.15    0.251 
##  5 MS_SubClassOne_and_Half_Story_Fin…    6.09e3     6270.    0.972   0.331 
##  6 MS_SubClassTwo_Story_1946_and_New…   -2.99e2     5439.   -0.0550  0.956 
##  7 MS_SubClassTwo_Story_1945_and_Old…    7.89e3     6075.    1.30    0.194 
##  8 MS_SubClassTwo_and_Half_Story_All…   -1.90e4    10395.   -1.82    0.0683
##  9 MS_SubClassSplit_or_Multilevel       -1.10e4    11925.   -0.922   0.356 
## 10 MS_SubClassSplit_Foyer               -8.82e3     7896.   -1.12    0.264 
## # ... with 281 more rows
…
