Advanced Business Analytics with R: Descriptive, Predictive, and Prescriptive Methods
…
Figure 2.36: Heat map of ,issing values in the raw Ames housing data.

Digging a little deeper into these variables, we might notice that Garage_Cars and Garage_Area contain the value 0 whenever the other Garage_xx variables have missing values (i.e. a value of NA). This might be because they did not have a way to identify houses with no garages when the data were originally collected; and therefore, all houses with no garage were identified by including nothing. Since this missingness is informative, it would be appropriate to impute NA with a new category level (e.g., "None") for these garage variables. Circumstances like this tend to only arise upon careful descriptive and visual examination of the data!

AmesHousing::ames_raw %>% 
  filter(is.na(`Garage Type`)) %>% 
  select(contains("garage"))
## # A tibble: 157 x 7
##    `Garage Type` `Garage Yr Blt` `Garage Finish` `Garage Cars`
##    <chr>                   <int> <chr>                   <int>
##  1 <NA>                       NA <NA>                        0
##  2 <NA>                       NA <NA>                        0
##  3 <NA>                       NA <NA>                        0
##  4 <NA>                       NA <NA>                        0
##  5 <NA>                       NA <NA>                        0
##  6 <NA>                       NA <NA>                        0
##  7 <NA>                       NA <NA>                        0
##  8 <NA>                       NA <NA>                        0
##  9 <NA>                       NA <NA>                        0
## 10 <NA>                       NA <NA>                        0
## # ... with 147 more rows, and 3 more variables: `Garage Area` <int>,
## #   `Garage Qual` <chr>, `Garage Cond` <chr>
…
